<svg width="140" height="45" viewBox="0 0 140 45" fill="none" xmlns="http://www.w3.org/2000/svg">
<path d="M51.743 30.8346C51.743 28.4149 52.4676 26.3506 53.9167 24.6692C55.3657 22.9603 57.2386 22.1128 59.5489 22.1128C60.6016 22.1128 61.5175 22.3042 62.283 22.7006C63.0623 23.0697 63.6638 23.6029 64.0739 24.2864C64.4977 24.9562 64.8121 25.6808 64.9898 26.4873C65.1812 27.2666 65.2769 28.1415 65.2769 29.0984C65.2769 31.8052 64.5797 33.8558 63.199 35.2638C61.8319 36.6719 60.0411 37.3828 57.8264 37.3828C56.6508 37.3828 55.6391 37.1914 54.8052 36.7949C53.9577 36.3848 53.3288 35.8517 52.8914 35.1818C52.4813 34.4983 52.1805 33.8011 52.0165 33.1039C51.8387 32.3793 51.743 31.6275 51.743 30.8346ZM55.9399 30.5885C55.9399 31.5728 56.2407 32.4067 56.8558 33.1175C57.4573 33.8284 58.1819 34.1702 59.0294 34.1702C59.754 34.1702 60.3828 33.8831 60.9023 33.2953C61.4355 32.6938 61.7909 32.0512 61.9823 31.3814C62.1737 30.6979 62.2694 30.0553 62.2694 29.4675C62.2694 28.5926 62.0096 27.827 61.4765 27.1845C60.9433 26.5147 60.2871 26.1866 59.4806 26.1866C58.4963 26.1866 57.6624 26.6514 56.9515 27.5946C56.2817 28.5242 55.9399 29.5222 55.9399 30.5885Z" fill="#F06C00"/>
<path d="M67.3684 30.8346C67.3684 28.4149 68.0929 26.3506 69.542 24.6692C70.9911 22.9603 72.864 22.1128 75.1743 22.1128C76.2269 22.1128 77.1428 22.3042 77.9084 22.7006C78.6876 23.0697 79.2891 23.6029 79.6992 24.2864C80.123 24.9562 80.4374 25.6808 80.6152 26.4873C80.8066 27.2666 80.9022 28.1415 80.9022 29.0984C80.9022 31.8052 80.205 33.8558 78.8243 35.2638C77.4573 36.6719 75.6664 37.3828 73.4518 37.3828C72.2761 37.3828 71.2645 37.1914 70.4306 36.7949C69.583 36.3848 68.9542 35.8517 68.5167 35.1818C68.1066 34.4983 67.8059 33.8011 67.6418 33.1039C67.4504 32.3793 67.3684 31.6275 67.3684 30.8346ZM71.5653 30.5885C71.5653 31.5728 71.866 32.4067 72.4812 33.1175C73.0827 33.8284 73.8072 34.1702 74.6411 34.1702C75.3657 34.1702 75.9945 33.8831 76.514 33.2953C77.0472 32.6938 77.4026 32.0512 77.594 31.3814C77.7854 30.6979 77.8811 30.0553 77.8811 29.4675C77.8811 28.5926 77.6213 27.827 77.0882 27.1845C76.555 26.5147 75.8988 26.1866 75.0923 26.1866C74.108 26.1866 73.2741 26.6514 72.5632 27.5946C71.907 28.5242 71.5653 29.5222 71.5653 30.5885Z" fill="#F06C00"/>
<path d="M82.9255 35.0336C82.9255 33.8169 83.1853 33.0651 83.7184 32.778C84.2106 32.6003 84.8668 32.5182 85.7143 32.5182C85.8374 32.5182 85.9877 32.5319 86.1791 32.5729C86.1791 32.0124 86.1655 31.0965 86.1244 29.8388C86.0834 28.5675 86.0698 27.6105 86.0698 26.968C85.9877 26.968 85.6733 26.9953 85.0992 27.05C84.525 27.091 84.1969 27.1047 84.1012 27.1047C84.0192 27.1047 83.9098 27.091 83.7458 27.05C83.5954 27.009 83.4724 26.9953 83.3903 26.9953C83.3083 26.9133 83.2673 26.7083 83.2673 26.3802C83.2673 25.847 83.3493 25.1908 83.4997 24.4116C83.6501 23.605 83.8005 23.1266 83.9372 22.9489C84.5113 22.5934 85.5366 22.4157 87.054 22.4157C88.2434 22.4157 89.0226 22.4841 89.378 22.6208C89.7471 22.7438 89.9385 23.0446 89.9385 23.5367C89.9385 24.1245 89.8838 24.7124 89.7881 25.3002C91.6337 23.1813 93.6159 22.1286 95.7485 22.1286C99.1115 22.1286 100.793 24.4936 100.793 29.2373C100.793 30.1942 100.738 31.1238 100.615 32.0261C100.615 31.9851 100.697 31.9714 100.875 31.9714C101.162 31.9714 101.627 32.0261 102.256 32.1218C102.433 32.3132 102.515 32.9557 102.515 34.0357C102.515 35.3891 102.42 36.223 102.228 36.5237C100.766 36.9202 99.4942 37.1115 98.4143 37.1115C97.6487 37.1115 96.7738 36.9338 95.7758 36.5784C95.6391 36.4827 95.4888 36.1409 95.3384 35.5531C95.188 34.9516 95.106 34.4321 95.106 33.9947C95.106 33.3521 95.2837 32.7917 95.6391 32.3269C95.8579 32.1901 96.1313 32.1218 96.4867 32.1218C96.7601 32.1218 97.0199 32.1765 97.2796 32.2722C97.2796 32.2175 97.2796 31.9577 97.2796 31.5066C97.2933 31.0555 97.3069 30.7684 97.3069 30.659C97.3069 29.4287 96.9652 28.3487 96.2817 27.4328C95.6118 26.4895 94.7779 26.0247 93.7526 26.0247C92.8777 26.0247 92.0575 26.3802 91.3193 27.1047C90.5947 27.8156 90.2393 28.9229 90.2393 30.454C90.2393 31.0008 90.2666 31.7117 90.3213 32.6003C90.5537 32.4636 90.8544 32.3952 91.2372 32.3952C91.5927 32.3952 91.8114 32.4499 91.8797 32.5456C92.0711 32.5456 92.1668 32.942 92.1668 33.7212C92.1668 33.899 92.0711 34.7055 91.8797 36.1273C90.4717 36.8108 88.6808 37.1526 86.5072 37.1526C84.73 37.1526 83.6227 36.8791 83.1853 36.3323C83.0076 36.0726 82.9255 35.6488 82.9255 35.0336Z" fill="#F06C00"/>
<path d="M104.129 30.9439C104.129 28.7293 104.921 26.7061 106.507 24.8742C108.107 23.0287 109.898 22.1128 111.88 22.1128C113.096 22.1128 114.135 22.4819 114.997 23.2337C115.858 23.972 116.282 24.9426 116.282 26.1456C116.282 27.54 115.707 28.7293 114.545 29.7273C113.411 30.7115 111.907 31.19 110.021 31.19C108.941 31.19 108.189 31.026 107.765 30.6979C107.779 31.6411 108.12 32.393 108.763 32.9535C109.405 33.5003 110.157 33.7737 110.991 33.7737C112.085 33.7737 112.973 33.3499 113.657 32.4887C113.657 32.3383 113.684 32.1606 113.739 31.9966C114.6 31.2857 115.53 30.9439 116.528 30.9439C116.719 30.9439 116.869 30.9576 116.965 30.9713C118.25 31.6821 119.043 32.8305 119.344 34.4299C119.33 34.5803 119.248 34.758 119.111 34.9221C118.988 35.0998 118.865 35.2501 118.729 35.3869C118.592 35.5099 118.401 35.6466 118.141 35.8243C117.881 35.9747 117.676 36.0977 117.526 36.1797C117.389 36.2618 117.17 36.3711 116.883 36.5352C116.61 36.6856 116.459 36.7813 116.418 36.7949C116.295 36.7949 116.2 36.7813 116.131 36.7676C116.049 36.7266 115.981 36.6856 115.899 36.6172C115.844 36.5352 115.803 36.4942 115.776 36.4668C115.762 36.4258 115.721 36.3438 115.653 36.2344C115.598 36.0977 115.557 36.0157 115.53 36.002C114.081 36.959 112.522 37.4374 110.868 37.4374C109.009 37.4374 107.409 36.8359 106.083 35.6466C104.785 34.4436 104.129 32.8851 104.129 30.9439ZM108.708 27.5126C108.708 28.1551 109.173 28.4832 110.116 28.4832C110.827 28.4832 111.497 28.3192 112.139 27.9911C112.782 27.663 113.11 27.2529 113.11 26.7607C113.11 26.4327 112.987 26.0909 112.755 25.7355C112.536 25.3664 112.18 25.175 111.702 25.175C111.101 25.175 110.444 25.421 109.733 25.9132C109.05 26.3916 108.708 26.9248 108.708 27.5126Z" fill="#F06C00"/>
<path d="M119.645 18.3261C119.645 16.836 119.768 15.9338 120.027 15.592C120.601 15.2366 121.832 15.0589 123.759 15.0589C124.334 15.0589 124.976 15.0862 125.701 15.1409C126.425 15.1956 126.808 15.2503 126.849 15.2913C127.04 15.6194 127.136 17.8477 127.136 21.9762C127.136 23.2612 127.109 23.9857 127.054 24.1498C128.872 22.7827 130.759 22.0992 132.714 22.0992C134.354 22.0992 135.694 22.6323 136.705 23.7123C137.744 24.7923 138.264 26.4874 138.264 28.7841C138.264 30.657 138.209 31.8326 138.086 32.2701C138.127 32.2291 138.223 32.2154 138.387 32.2154C138.893 32.2154 139.344 32.2701 139.74 32.3658C139.918 32.5572 140 33.104 140 33.9789C140 35.3323 139.904 36.1662 139.699 36.4669C138.236 36.8634 136.897 37.0548 135.68 37.0548C134.532 37.0548 133.452 36.877 132.454 36.5216C132.317 36.4259 132.167 36.0842 132.016 35.4963C131.866 34.8948 131.784 34.3753 131.784 33.9652C131.784 33.5961 131.962 33.1723 132.317 32.7075C132.536 32.5708 132.809 32.5025 133.165 32.5025C133.438 32.5025 133.698 32.5572 133.958 32.6529C133.958 32.5982 133.958 32.0787 133.958 31.0944C133.971 30.0965 133.985 29.536 133.985 29.4266C133.985 28.2373 133.657 27.212 132.987 26.3781C132.317 25.5168 131.456 25.093 130.403 25.093C128.462 25.093 127.491 26.7198 127.491 30.0008C127.491 30.3699 127.519 31.3268 127.573 32.8442C127.806 32.7075 128.107 32.6392 128.489 32.6392C128.845 32.6392 129.064 32.6939 129.132 32.7896C129.323 32.7896 129.419 33.186 129.419 33.9652C129.419 34.1566 129.405 34.3207 129.392 34.43L129.269 35.0452C129.228 35.3323 129.187 35.6877 129.118 36.0705C127.614 36.7403 125.66 37.0684 123.254 37.0684C121.586 37.0684 120.547 36.795 120.137 36.2482C119.959 36.0158 119.877 35.674 119.877 35.2229C119.877 33.5551 120.683 32.7349 122.283 32.7349C122.707 32.7349 123.09 32.7759 123.431 32.8579C123.336 28.3603 123.281 24.4369 123.281 21.0876C123.281 19.9119 123.295 19.2694 123.336 19.1464C123.254 19.1464 123.144 19.16 122.98 19.1737C122.83 19.1737 122.679 19.1737 122.543 19.1737C121.23 19.1737 120.301 19.1327 119.754 19.0507C119.686 18.9823 119.645 18.7362 119.645 18.3261Z" fill="#F06C00"/>
<path d="M24.0465 41.1582C24.0465 42.9627 22.5837 44.4254 20.7792 44.4254C18.9747 44.4254 17.512 42.9627 17.512 41.1582C17.512 39.3536 18.9747 37.8909 20.7792 37.8909C22.5837 37.9046 24.0465 39.3536 24.0465 41.1582Z" fill="#F06C00"/>
<path d="M41.9823 41.1582C41.9823 42.9627 40.5195 44.4254 38.715 44.4254C36.9105 44.4254 35.4478 42.9627 35.4478 41.1582C35.4478 39.3536 36.9105 37.8909 38.715 37.8909C40.5195 37.8909 41.9823 39.3536 41.9823 41.1582Z" fill="#F06C00"/>
<path fill-rule="evenodd" clip-rule="evenodd" d="M47.7922 8.29335C46.015 6.0924 43.568 5.01243 41.0936 4.98508C38.5509 4.95774 36.0902 6.03772 34.3404 7.95159C32.8093 6.06506 30.4443 4.698 27.177 4.698C26.9993 4.698 26.8353 4.698 26.6576 4.71167C25.0308 4.78003 22.7068 5.36786 20.7519 6.96731C18.7013 8.64879 17.2659 11.3009 17.4026 15.0466C17.4163 17.2886 18.0178 20.6105 19.8223 23.659C21.6678 26.8033 24.8257 29.6604 29.7744 30.5627L30.1709 30.631L30.1846 30.59V30.5763C30.0615 30.5217 29.7198 30.3166 29.2276 30.0295C29.2413 30.0295 29.2686 30.0432 29.2823 30.0432C28.8312 29.7288 28.4211 29.4007 28.4211 29.4007L28.4074 29.387C26.3841 27.7329 25.0034 25.3815 24.0738 23.0029C24.0328 22.9618 24.0191 22.9072 24.0055 22.8525C23.9508 22.7294 23.8961 22.5791 23.8414 22.4287C23.8278 22.4014 23.8141 22.374 23.8141 22.3467L23.8004 22.333C23.8004 22.3193 23.8004 22.3193 23.7867 22.3057C23.7867 22.3057 23.7867 22.3193 23.8004 22.3193C23.6637 21.9366 23.5407 21.5674 23.4313 21.1847C23.363 20.9659 23.2946 20.7472 23.2536 20.5695C23.2536 20.5695 23.2536 20.5695 23.2536 20.5558C22.9255 19.3665 22.6931 18.2182 22.5564 17.2339C22.3787 16.3863 22.3103 15.6071 22.3103 14.9919V14.8826C22.2146 12.6269 23.0212 11.4376 23.8688 10.7404C24.8257 9.96116 26.0697 9.63307 26.8626 9.59206C27.9426 9.55104 28.7355 9.74243 29.3506 10.0569C29.9658 10.3849 30.417 10.8361 30.7587 11.3419C31.3876 12.2578 31.6883 13.4061 31.7977 14.3494V17.9311H36.6917V15.3884H36.7601V14.9919C36.7601 14.8826 36.7464 14.7732 36.7464 14.6775C36.7601 11.5196 39.0157 9.8518 41.0526 9.87914C42.0779 9.89281 43.1442 10.3166 43.9918 11.3692C44.8667 12.4492 45.6596 14.3631 45.6596 17.4936C45.6596 23.7547 43.1442 27.3911 39.9727 29.551C36.6781 31.8067 32.4265 32.5996 28.9679 32.5996C25.892 32.5996 22.1463 31.1642 19.1661 28.4574C16.2269 25.7916 14.1627 22.0322 14.1627 17.4936C14.1627 13.1737 14.0123 10.0705 13.8072 7.92425C13.6979 6.84428 13.5885 5.9967 13.4655 5.34052C13.3424 4.73902 13.2057 4.13751 13.0144 3.68638L12.987 3.61803L12.9597 3.54968C12.2898 2.22364 11.1278 1.44441 10.0615 0.993287C8.99522 0.542159 7.80588 0.30976 6.69856 0.186725C4.90772 -0.0320032 2.9255 -0.00466217 1.38072 0.00900837H0V4.90306H0.410116C0.779221 4.90306 1.14833 4.90306 1.5311 4.88939C3.07587 4.87572 4.67532 4.87572 6.1244 5.03977C7.01299 5.14913 7.68284 5.29951 8.13397 5.49089C8.3527 5.58659 8.47573 5.66861 8.53042 5.70962C8.55776 5.81899 8.5851 5.96936 8.62611 6.20176C8.7218 6.68023 8.8175 7.40477 8.91319 8.37538C9.09091 10.3439 9.25496 13.2968 9.25496 17.4936C9.25496 23.618 12.0574 28.6351 15.8578 32.0801C19.6172 35.4841 24.4976 37.4936 28.9542 37.4936C33.028 37.4936 38.3459 36.5777 42.7341 33.5839C47.2591 30.4943 50.54 25.3405 50.54 17.4936C50.54 13.5839 49.5557 10.4806 47.7922 8.29335Z" fill="#F06C00"/>
</svg>
